{
  "project_info": {
    "project_number": "855949091120",
    "firebase_url": "https://finjanmobile-vitalsecurity.firebaseio.com",
    "project_id": "finjanmobile-vitalsecurity",
    "storage_bucket": "finjanmobile-vitalsecurity.appspot.com"
  },
  "client": [
    {
      "client_info": {
        "mobilesdk_app_id": "1:855949091120:android:a4c1633d49f35dd7",
        "android_client_info": {
          "package_name": "com.finjan.securebrowser"
        }
      },
      "oauth_client": [
        {
          "client_id": "855949091120-980s6c2d7jh5p33v91ov337cnjr4jl4v.apps.googleusercontent.com",
          "client_type": 3
        }
      ],
      "api_key": [
        {
          "current_key": "AIzaSyBqXspWbd2ouQSbRqd5XSPBgSqTkbpvUME"
        }
      ],
      "services": {
        "analytics_service": {
          "status": 1
        },
        "appinvite_service": {
          "status": 1,
          "other_platform_oauth_client": []
        },
        "ads_service": {
          "status": 2
        }
      }
    }
  ],
  "configuration_version": "1"
}